
{"res": 1, "data": {"lv_1": [
  {"serviceId": 2110, "name": "Nas 601 Vod Media", "state": "None", "enable": true},
  {"serviceId": 1505, "name": "Proxy 603 Vod", "state": "None", "enable": true},
  {"serviceId": 1539, "name": "Proxy 604 Vod", "state": "None", "enable": true}
], "ww_1": [
  {"serviceId": 2201, "name": "Nas 801 Vod Media", "state": "None", "enable": true},
  {"serviceId": 2202, "name": "Nas 802 Vod Media", "state": "None", "enable": true},
  {"serviceId": 1513, "name": "Proxy 803 Vod", "state": "None", "enable": true}
], "ru_1": [
  {"serviceId": 4, "name": "Authorize 3", "enable": true, "falseAuthorizeCount": 0, "trueAuthorizeCount": 3, "updated": true, "state": "Free", "totalRequestCount": 9},
  {"deleteCount": 0, "serviceId": 31, "updated": true, "addCount": 0, "state": "Free", "totalRequestCount": 2},
  {"serviceId": 52, "name": "Coordinator 3", "state": "None", "enable": true},
  {"serviceId": 14, "name": "Metagen 3", "state": "None", "enable": true},
  {"serviceId": 24, "name": "Stat 3", "state": "None", "enable": true},
  {"threadTotal": 20,"name": "Nas 1301 Vod", "bandwith": 1961, "state": "Stable", "errorCount": 0, "testTime": 248, "sessionNew": 361, "memoryMax": 8.800000190734863, "online": 975, "nasErrorCount": 0, "diskFree": 697208, "serviceId": 1045, "updated": true, "nasCount": 107, "requestCount": 20, "sessionReject": 0, "memoryUsed": 0.699999988079071, "stateCount": 3},
  {"threadTotal": 0, "name": "Nas 1331 Download", "bandwith": 1254, "state": "Free", "errorCount": 0, "testTime": 393, "sessionNew": 256, "memoryMax": 8.800000190734863, "online": 623, "nasErrorCount": 0, "diskFree": 1532073, "serviceId": 1047, "updated": true, "nasCount": 299, "requestCount": 12, "sessionReject": 0, "memoryUsed": 0.5, "stateCount": 2},
  {"threadTotal": 0, "name": "Nas 301 Vod Media", "bandwith": 1699, "state": "Busy", "errorCount": 0, "testTime": 1197, "sessionNew": 183, "memoryMax": 8.800000190734863, "online": 735, "nasErrorCount": 0, "diskFree": 3583134, "serviceId": 1049, "updated": true, "nasCount": 172, "requestCount": 20, "sessionReject": 0, "memoryUsed": 0.6000000238418579, "stateCount": 2},
  {"threadTotal": 0, "name": "Nas 1330 Download", "bandwith": 1364, "state": "Free", "errorCount": 0, "testTime": 252, "sessionNew": 161, "memoryMax": 8.800000190734863, "online": 598, "nasErrorCount": 0, "diskFree": 4243335, "serviceId": 1051, "updated": true, "nasCount": 36, "requestCount": 12, "sessionReject": 0, "memoryUsed": 0.4000000059604645, "stateCount": 2},
  {"serviceId": 1537, "name": "Proxy 328 Vod", "state": "None", "enable": true}
], "kz_2": [
  {"serviceId": 2050, "name": "Nas 102 Vod Media", "state": "None", "enable": true},
  {"serviceId": 1511, "name": "Proxy 105 Vod", "state": "None", "enable": true}
], "md_1": [
  {"serviceId": 2120, "name": "Nas 701 Vod Media", "state": "None", "enable": true},
  {"serviceId": 1515, "name": "Proxy 703 Vod", "state": "None", "enable": true}
], "ee_1": [
  {"serviceId": 2100, "name": "Nas 501 Vod Media", "state": "None", "enable": true},
  {"serviceId": 1501, "name": "Proxy 503 Vod", "state": "None", "enable": true}
], "by_1": [
  {"serviceId": 2070, "name": "Nas 201 Vod Media", "state": "None", "enable": true},
  {"serviceId": 1507, "name": "Proxy 203 Vod", "state": "None", "enable": true},
  {"serviceId": 1509, "name": "Proxy 204 Vod", "state": "None", "enable": true}
], "lt_1": [
  {"serviceId": 2090, "name": "Nas 401 Vod Media", "state": "None", "enable": true},
  {"serviceId": 1503, "name": "Proxy 403 Vod", "state": "None", "enable": true}
], "all_1": [
  {"serviceId": 2, "name": "Authorize 1", "state": "None", "enable": true},
  {"serviceId": 31, "name": "Balancer 1", "state": "None", "enable": true},
  {"serviceId": 51, "name": "Coordinator 1", "state": "None", "enable": true},
  {"serviceId": 13, "name": "Metagen 1", "overTLCount": 0, "updated": true, "state": "Stable", "totalRequestCount": 3407, "resolveRequestCount": 3399},
  {"serviceId": 18, "name": "Metagen7", "overTLCount": 0, "updated": true, "state": "Error", "totalRequestCount": 0, "resolveRequestCount": 0},
  {"serviceId": 22, "name": "Stat 1", "state": "None", "enable": true},
  {"serviceId": 2002, "name": "Nas 24 Vod Media", "state": "None", "enable": true},
  {"serviceId": 72, "name": "Nas 61 Download", "state": "None", "enable": true},
  {"serviceId": 73, "name": "Nas 61 Upload", "state": "None", "enable": true},
  {"serviceId": 71, "name": "Nas 61 Vod", "state": "None", "enable": true},
  {"serviceId": 2216, "name": "Nas 63 Vod Media", "state": "None", "enable": true},
  {"serviceId": 1021, "name": "Proxy 07 Vod", "state": "None", "enable": true},
  {"serviceId": 1061, "name": "Proxy 42 Vod", "state": "None", "enable": true}
]}}