[
	{"name": "all",   "caption": "Все регионы"},
	{"name": "lv_1",  "caption": "lv_1"},
	{"name": "ww_1",  "caption": "ww_1"},
	{"name": "ru_1",  "caption": "Россия"},
	{"name": "md_1",  "caption": "Молдова"},
	{"name": "by_1",  "caption": "Беларусь"},
	{"name": "kz_2",  "caption": "kz_2"},
	{"name": "ee_1",  "caption": "ee_1"},
	{"name": "lt_1",  "caption": "lt_1"},
	{"name": "all_1", "caption": "all_1"}
]